Capítulo 3 Análisis de datos exploratorio | R para preparación y visualización de datos
…
gapminder %>% 
  count(lifeExp)

## # A tibble: 1,626 x 2
##    lifeExp     n
##      <dbl> <int>
##  1    23.6     1
##  2    28.8     1
##  3    30       1
##  4    30.0     1
##  5    30.3     1
##  6    30.3     1
##  7    31.2     1
##  8    31.3     1
##  9    31.6     1
## 10    32.0     1
## # … with 1,616 more rows
…
diamonds %>% 
  count(color, cut)

## # A tibble: 35 x 3
##    color cut           n
##    <ord> <ord>     <int>
##  1 D     Fair        163
##  2 D     Good        662
##  3 D     Very Good  1513
##  4 D     Premium    1603
##  5 D     Ideal      2834
##  6 E     Fair        224
##  7 E     Good        933
##  8 E     Very Good  2400
##  9 E     Premium    2337
## 10 E     Ideal      3903
## # … with 25 more rows
…
