Capítulo 2 Preparación y transformación de datos | R para preparación y visualización de datos
…
readr::read_delim( , delim = "|"): valores separados por un delimitador arbitrario

# Cargamos libreria
if (!require("readr")) install.packages("readr"); library("readr")

# Version simple
DF_name = read_csv("data/files/02-read-csv.csv")

# Version avanzada
name_of_file = here::here("data", "files", "02-read-csv.csv")
DF_name = read_csv(name_of_file)

DF_name

## # A tibble: 103 x 8
##       X1    ID Genero  Edad Educacion FollowUP condition PPV_DECLARED
##    <dbl> <dbl>  <dbl> <dbl>     <dbl>    <dbl> <chr>            <dbl>
##  1     4 41904      1    47         8       80 PPV_Cond1           99
##  2     5 95041      2    21         6       90 PPV_Cond1           99
##  3     6 74594      2    29         6       10 PPV_Cond1           99
##  4    15 72903      2    27         7       75 PPV_Cond1            1
##  5    16 21260      1    29         5       35 PPV_Cond1           24
##  6    18 50315      2    28         6       14 PPV_Cond1           99
##  7    19 21774      2    27         4        2 PPV_Cond1           99
##  8    20 20881      2    55         6       89 PPV_Cond1           99
##  9    21 39751      2    28         6        6 PPV_Cond1           99
## 10    22 99384      1    46         5        0 PPV_Cond1            1
## # … with 93 more rows

2.1.1.2 Otros tipos de archivos

2.1.1.2.1 Archivos excel

if (!require("readxl")) install.packages("readxl"); library("readxl")
name_of_file = here::here("data", "files", "02-read-xlsx.xlsx")
readxl::read_excel(name_of_file)

## # A tibble: 103 x 8
##     ...1    ID Genero  Edad Educacion FollowUP condition PPV_DECLARED
##    <dbl> <dbl>  <dbl> <dbl>     <dbl>    <dbl> <chr>            <dbl>
##  1     4 41904      1    47         8       80 PPV_Cond1           99
##  2     5 95041      2    21         6       90 PPV_Cond1           99
##  3     6 74594      2    29         6       10 PPV_Cond1           99
##  4    15 72903      2    27         7       75 PPV_Cond1            1
##  5    16 21260      1    29         5       35 PPV_Cond1           24
##  6    18 50315      2    28         6       14 PPV_Cond1           99
##  7    19 21774      2    27         4        2 PPV_Cond1           99
##  8    20 20881      2    55         6       89 PPV_Cond1           99
##  9    21 39751      2    28         6        6 PPV_Cond1           99
## 10    22 99384      1    46         5        0 PPV_Cond1            1
## # … with 93 more rows

2.1.1.2.2 Archivos SPSS

if (!require("haven")) install.packages("haven"); library("haven")
name_of_file = here::here("data", "files", "02-read-sav.sav")
haven::read_sav(name_of_file)

## # A tibble: 103 x 8
##       X1    ID Genero  Edad Educacion FollowUP condition PPV_DECLARED
##    <dbl> <dbl>  <dbl> <dbl>     <dbl>    <dbl> <chr>            <dbl>
##  1     4 41904      1    47         8       80 PPV_Cond1           99
##  2     5 95041      2    21         6       90 PPV_Cond1           99
##  3     6 74594      2    29         6       10 PPV_Cond1           99
##  4    15 72903      2    27         7       75 PPV_Cond1            1
##  5    16 21260      1    29         5       35 PPV_Cond1           24
##  6    18 50315      2    28         6       14 PPV_Cond1           99
##  7    19 21774      2    27         4        2 PPV_Cond1           99
##  8    20 20881      2    55         6       89 PPV_Cond1           99
##  9    21 39751      2    28         6        6 PPV_Cond1           99
## 10    22 99384      1    46         5        0 PPV_Cond1            1
## # … with 93 more rows
…
2.1.1.2.4 Google sheets

Para poder leer una gsheet debemos antes crear un enlace para compartirla: "Share" -> "Get shareable link"

if (!require("gsheet")) install.packages("gsheet"); library("gsheet")
name_of_sheet = "1jjb91j2X13_JKDAeIwrKIdNv0rcseMdteSqb0ZMVOig/edit#gid=807114896"
gsheet::gsheet2tbl(name_of_sheet)   

## # A tibble: 103 x 8
##       X1    ID Genero  Edad Educacion FollowUP condition PPV_DECLARED
##    <dbl> <dbl>  <dbl> <dbl>     <dbl>    <dbl> <chr>            <dbl>
##  1     4 41904      1    47         8       80 PPV_Cond1           99
##  2     5 95041      2    21         6       90 PPV_Cond1           99
##  3     6 74594      2    29         6       10 PPV_Cond1           99
##  4    15 72903      2    27         7       75 PPV_Cond1            1
##  5    16 21260      1    29         5       35 PPV_Cond1           24
##  6    18 50315      2    28         6       14 PPV_Cond1           99
##  7    19 21774      2    27         4        2 PPV_Cond1           99
##  8    20 20881      2    55         6       89 PPV_Cond1           99
##  9    21 39751      2    28         6        6 PPV_Cond1           99
## 10    22 99384      1    46         5        0 PPV_Cond1            1
## # … with 93 more rows
…
Importamos los archivos que están en la carpeta data/files/02-CSVs

# Directorio donde se encuentran los archivos
name_of_folder = here::here("data", "files", "02-CSVs")

# Listamos los archivos a leer
files <- list.files(name_of_folder, full.names = TRUE)

# Leemos todos los archivos, combinandolos en un dataframe
full <- map_df(files, read_csv)
full

## # A tibble: 1,600 x 9
##    Sex   Priming    trialN Block Adjective  Valence  Answer Arrow    rT
##    <chr> <chr>       <dbl> <chr> <chr>      <chr>    <chr>  <chr> <dbl>
##  1 male  Collective      1 we    ofensivo   negative yes    left    623
##  2 male  Collective      2 we    resentido  negative no     right  1235
##  3 male  Collective      3 we    ego�sta    negative yes    left    335
##  4 male  Collective      4 we    indiscreto negative yes    left    355
##  5 male  Collective      5 we    sumiso     negative yes    left    618
##  6 male  Collective      6 we    agradable  positive yes    left    328
##  7 male  Collective      7 we    clasista   negative yes    left    348
##  8 male  Collective      8 we    altruista  positive yes    left   1620
##  9 male  Collective      9 we    ansioso    negative yes    left    346
## 10 male  Collective     10 we    presumido  negative yes    left    778
## # … with 1,590 more rows

2.1.3.1 Incluir nombres de archivos

Incluimos nombres de archivo en una columna:

name_of_folder = here::here("data", "files", "02-CSVs")
files <- list.files(name_of_folder, full.names = TRUE) %>% 
  set_names(basename(.))
full2 <- map_df(files, read_csv, .id = "file")
full2

## # A tibble: 1,600 x 10
##    file   Sex   Priming   trialN Block Adjective Valence Answer Arrow    rT
##    <chr>  <chr> <chr>      <dbl> <chr> <chr>     <chr>   <chr>  <chr> <dbl>
##  1 01.csv male  Collecti…      1 we    ofensivo  negati… yes    left    623
##  2 01.csv male  Collecti…      2 we    resentido negati… no     right  1235
##  3 01.csv male  Collecti…      3 we    ego�sta   negati… yes    left    335
##  4 01.csv male  Collecti…      4 we    indiscre… negati… yes    left    355
##  5 01.csv male  Collecti…      5 we    sumiso    negati… yes    left    618
##  6 01.csv male  Collecti…      6 we    agradable positi… yes    left    328
##  7 01.csv male  Collecti…      7 we    clasista  negati… yes    left    348
##  8 01.csv male  Collecti…      8 we    altruista positi… yes    left   1620
##  9 01.csv male  Collecti…      9 we    ansioso   negati… yes    left    346
## 10 01.csv male  Collecti…     10 we    presumido negati… yes    left    778
## # … with 1,590 more rows
…
full

## # A tibble: 1,600 x 9
##    Sex   Priming    trialN Block Adjective  Valence  Answer Arrow    rT
##    <fct> <chr>       <int> <chr> <chr>      <fct>    <chr>  <chr> <dbl>
##  1 male  Collective      1 we    ofensivo   negative yes    left    623
##  2 male  Collective      2 we    resentido  negative no     right  1235
##  3 male  Collective      3 we    ego�sta    negative yes    left    335
##  4 male  Collective      4 we    indiscreto negative yes    left    355
##  5 male  Collective      5 we    sumiso     negative yes    left    618
##  6 male  Collective      6 we    agradable  positive yes    left    328
##  7 male  Collective      7 we    clasista   negative yes    left    348
##  8 male  Collective      8 we    altruista  positive yes    left   1620
##  9 male  Collective      9 we    ansioso    negative yes    left    346
## 10 male  Collective     10 we    presumido  negative yes    left    778
## # … with 1,590 more rows

2.1.4 Ejercicios - Importar múltiples archivos

Cuando más arriba importamos los archivos que están en la carpeta data/files/02-CSVs, ¿qué archivos importamos exáctamente? ¿Ves algún problema en lo que hicimos? El resultado final deberia ser así:

## # A tibble: 1,200 x 9
##    Sex   Priming    trialN Block Adjective  Valence  Answer Arrow    rT
##    <chr> <chr>       <dbl> <chr> <chr>      <chr>    <chr>  <chr> <dbl>
##  1 male  Collective      1 we    ofensivo   negative yes    left    623
##  2 male  Collective      2 we    resentido  negative no     right  1235
##  3 male  Collective      3 we    ego�sta    negative yes    left    335
##  4 male  Collective      4 we    indiscreto negative yes    left    355
##  5 male  Collective      5 we    sumiso     negative yes    left    618
##  6 male  Collective      6 we    agradable  positive yes    left    328
##  7 male  Collective      7 we    clasista   negative yes    left    348
##  8 male  Collective      8 we    altruista  positive yes    left   1620
##  9 male  Collective      9 we    ansioso    negative yes    left    346
## 10 male  Collective     10 we    presumido  negative yes    left    778
## # … with 1,190 more rows

Leed los archivos .xlsx de la carpeta data/files/02-XLSs, combinándolos en un único DF. El resultado final debería ser como se ve a continuación:

## # A tibble: 1,200 x 9
##    Sex   Priming    trialN Block Adjective  Valence  Answer Arrow    rT
##    <chr> <chr>       <dbl> <chr> <chr>      <chr>    <chr>  <chr> <dbl>
##  1 male  Collective      1 we    ofensivo   negative yes    left    623
##  2 male  Collective      2 we    resentido  negative no     right  1235
##  3 male  Collective      3 we    ego�sta    negative yes    left    335
##  4 male  Collective      4 we    indiscreto negative yes    left    355
##  5 male  Collective      5 we    sumiso     negative yes    left    618
##  6 male  Collective      6 we    agradable  positive yes    left    328
##  7 male  Collective      7 we    clasista   negative yes    left    348
##  8 male  Collective      8 we    altruista  positive yes    left   1620
##  9 male  Collective      9 we    ansioso    negative yes    left    346
## 10 male  Collective     10 we    presumido  negative yes    left    778
## # … with 1,190 more rows
…
mutate(): crear columnas, modificar columnas, etc.

Podemos ver mas detalle y ejemplos en la Cheatsheet de dplyr.

Tabla resumen dplyr

2.2.2.1 Filtrar y ordenar filas

# DF original
name_of_file = here::here("data", "files", "02-read-csv.csv")
DF_name = read_csv(name_of_file)
DF_name

## # A tibble: 103 x 8
##       X1    ID Genero  Edad Educacion FollowUP condition PPV_DECLARED
##    <dbl> <dbl>  <dbl> <dbl>     <dbl>    <dbl> <chr>            <dbl>
##  1     4 41904      1    47         8       80 PPV_Cond1           99
##  2     5 95041      2    21         6       90 PPV_Cond1           99
##  3     6 74594      2    29         6       10 PPV_Cond1           99
##  4    15 72903      2    27         7       75 PPV_Cond1            1
##  5    16 21260      1    29         5       35 PPV_Cond1           24
##  6    18 50315      2    28         6       14 PPV_Cond1           99
##  7    19 21774      2    27         4        2 PPV_Cond1           99
##  8    20 20881      2    55         6       89 PPV_Cond1           99
##  9    21 39751      2    28         6        6 PPV_Cond1           99
## 10    22 99384      1    46         5        0 PPV_Cond1            1
## # … with 93 more rows
…
## # A tibble: 3 x 8
##      X1    ID Genero  Edad Educacion FollowUP condition PPV_DECLARED
##   <dbl> <dbl>  <dbl> <dbl>     <dbl>    <dbl> <chr>            <dbl>
## 1   157 12207      1    26         9       57 PPV_Cond2           45
## 2   287 60873      1    72        10       51 PPV_Cond3           99
## 3   381 64486      2    19         9       80 PPV_Cond4           92

# Ordenar
DF_name %>% 
  arrange(Educacion, desc(Genero))

## # A tibble: 103 x 8
##       X1    ID Genero  Edad Educacion FollowUP condition PPV_DECLARED
##    <dbl> <dbl>  <dbl> <dbl>     <dbl>    <dbl> <chr>            <dbl>
##  1   350 20439      2    41         1       81 PPV_Cond4           92
##  2   399 81379      1    36         1       90 PPV_Cond4           92
##  3    42 20361      2    37         2       60 PPV_Cond1            1
##  4   364 19201      2    21         2       67 PPV_Cond4           10
##  5   412 60292      1    28         2       90 PPV_Cond4           80
##  6    44 92735      2    30         3       95 PPV_Cond1           99
##  7   135 32344      2    34         3       81 PPV_Cond2           46
##  8   299 33562      2    35         3       95 PPV_Cond3           99
##  9   333 29837      2    28         3       80 PPV_Cond4           60
## 10   361 57804      2    40         3       30 PPV_Cond4           90
## # … with 93 more rows

2.2.2.2 Seleccionar, ordenar y renombrar columnas

# Seleccionar columnas
DF_name %>% 
  select(Genero, Edad)

## # A tibble: 103 x 2
##    Genero  Edad
##     <dbl> <dbl>
##  1      1    47
##  2      2    21
##  3      2    29
##  4      2    27
##  5      1    29
##  6      2    28
##  7      2    27
##  8      2    55
##  9      2    28
## 10      1    46
## # … with 93 more rows

# Eliminar columnas  
DF_name %>% 
  select(-X1)

## # A tibble: 103 x 7
##       ID Genero  Edad Educacion FollowUP condition PPV_DECLARED
##    <dbl>  <dbl> <dbl>     <dbl>    <dbl> <chr>            <dbl>
##  1 41904      1    47         8       80 PPV_Cond1           99
##  2 95041      2    21         6       90 PPV_Cond1           99
##  3 74594      2    29         6       10 PPV_Cond1           99
##  4 72903      2    27         7       75 PPV_Cond1            1
##  5 21260      1    29         5       35 PPV_Cond1           24
##  6 50315      2    28         6       14 PPV_Cond1           99
##  7 21774      2    27         4        2 PPV_Cond1           99
##  8 20881      2    55         6       89 PPV_Cond1           99
##  9 39751      2    28         6        6 PPV_Cond1           99
## 10 99384      1    46         5        0 PPV_Cond1            1
## # … with 93 more rows

# Ordenar y eliminar columnas
DF_name %>% 
  select(ID, Edad, Genero, everything(), -X1) 

## # A tibble: 103 x 7
##       ID  Edad Genero Educacion FollowUP condition PPV_DECLARED
##    <dbl> <dbl>  <dbl>     <dbl>    <dbl> <chr>            <dbl>
##  1 41904    47      1         8       80 PPV_Cond1           99
##  2 95041    21      2         6       90 PPV_Cond1           99
##  3 74594    29      2         6       10 PPV_Cond1           99
##  4 72903    27      2         7       75 PPV_Cond1            1
##  5 21260    29      1         5       35 PPV_Cond1           24
##  6 50315    28      2         6       14 PPV_Cond1           99
##  7 21774    27      2         4        2 PPV_Cond1           99
##  8 20881    55      2         6       89 PPV_Cond1           99
##  9 39751    28      2         6        6 PPV_Cond1           99
## 10 99384    46      1         5        0 PPV_Cond1            1
## # … with 93 more rows

# Renombrar columnas
DF_name %>% 
  rename(Identificador = ID,
         Sexo = Genero)

## # A tibble: 103 x 8
##       X1 Identificador  Sexo  Edad Educacion FollowUP condition
##    <dbl>         <dbl> <dbl> <dbl>     <dbl>    <dbl> <chr>    
##  1     4         41904     1    47         8       80 PPV_Cond1
##  2     5         95041     2    21         6       90 PPV_Cond1
##  3     6         74594     2    29         6       10 PPV_Cond1
##  4    15         72903     2    27         7       75 PPV_Cond1
##  5    16         21260     1    29         5       35 PPV_Cond1
##  6    18         50315     2    28         6       14 PPV_Cond1
##  7    19         21774     2    27         4        2 PPV_Cond1
##  8    20         20881     2    55         6       89 PPV_Cond1
##  9    21         39751     2    28         6        6 PPV_Cond1
## 10    22         99384     1    46         5        0 PPV_Cond1
## # … with 93 more rows, and 1 more variable: PPV_DECLARED <dbl>

# Renombrar usando la posicion (DANGER!)
DF_name %>% 
  rename(Identificador = 2)

## # A tibble: 103 x 8
##       X1 Identificador Genero  Edad Educacion FollowUP condition
##    <dbl>         <dbl>  <dbl> <dbl>     <dbl>    <dbl> <chr>    
##  1     4         41904      1    47         8       80 PPV_Cond1
##  2     5         95041      2    21         6       90 PPV_Cond1
##  3     6         74594      2    29         6       10 PPV_Cond1
##  4    15         72903      2    27         7       75 PPV_Cond1
##  5    16         21260      1    29         5       35 PPV_Cond1
##  6    18         50315      2    28         6       14 PPV_Cond1
##  7    19         21774      2    27         4        2 PPV_Cond1
##  8    20         20881      2    55         6       89 PPV_Cond1
##  9    21         39751      2    28         6        6 PPV_Cond1
## 10    22         99384      1    46         5        0 PPV_Cond1
## # … with 93 more rows, and 1 more variable: PPV_DECLARED <dbl>

# Renombrar usando vectores
oldnames = c("ID","Genero")
newnames = c("Identificador","Sexo")
DF_name %>% rename_at(vars(oldnames), ~ newnames)

## # A tibble: 103 x 8
##       X1 Identificador  Sexo  Edad Educacion FollowUP condition
##    <dbl>         <dbl> <dbl> <dbl>     <dbl>    <dbl> <chr>    
##  1     4         41904     1    47         8       80 PPV_Cond1
##  2     5         95041     2    21         6       90 PPV_Cond1
##  3     6         74594     2    29         6       10 PPV_Cond1
##  4    15         72903     2    27         7       75 PPV_Cond1
##  5    16         21260     1    29         5       35 PPV_Cond1
##  6    18         50315     2    28         6       14 PPV_Cond1
##  7    19         21774     2    27         4        2 PPV_Cond1
##  8    20         20881     2    55         6       89 PPV_Cond1
##  9    21         39751     2    28         6        6 PPV_Cond1
## 10    22         99384     1    46         5        0 PPV_Cond1
## # … with 93 more rows, and 1 more variable: PPV_DECLARED <dbl>
…
  # Seleccionamos variables que contienen la cadena de texto "dem"
  df_wide %>% 
    select(contains("dem"))

## # A tibble: 232 x 3
##    dem_genero dem_edad dem_nivedu
##         <dbl>    <dbl>      <dbl>
##  1          1       38          4
##  2          0       67          2
##  3          0       24          4
##  4          0       30          4
##  5          0       38          3
##  6          0       45          4
##  7          1       58          3
##  8          1       47          4
##  9          1       52          3
## 10          1       49          4
## # … with 222 more rows
…
