R para preparación y visualización de datos - 1 Introducción a R y visualización de datos
…
shape: shape = continent; shape = 0 ver codigo de las distintas formas

linetype: linetype = continent; linetype = “dashed”

group: group = continent

1.3.2.1 x-y

Algo esencial es decirle a ggplot que queremos que aparezca en el eje x y en el eje y de nuestra gráfica.

Empezaremos usando los datos de gapminder. A ver que variables tenemos en el data-frame gapminder:

gapminder
#> # A tibble: 1,704 × 6
#>   country     continent  year lifeExp      pop gdpPercap
#>   <fct>       <fct>     <int>   <dbl>    <int>     <dbl>
#> 1 Afghanistan Asia       1952    28.8  8425333      779.
#> 2 Afghanistan Asia       1957    30.3  9240934      821.
#> 3 Afghanistan Asia       1962    32.0 10267083      853.
#> 4 Afghanistan Asia       1967    34.0 11537966      836.
#> 5 Afghanistan Asia       1972    36.1 13079460      740.
#> 6 Afghanistan Asia       1977    38.4 14880372      786.
#> # ℹ 1,698 more rows
…
