2 Introducción a la visualización de datos – R para preparación y visualización de datos
…
Veamos algunos de los parámetros…

2.2.3.1 x-y

Algo esencial es decirle a ggplot qué queremos mostrar en los ejes x e y de nuestra gráfica.

Empezaremos usando los datos de gapminder Vamos a ver qué variables tenemos en el data frame:

Error: object ‘gapminder’ not found

Si te aparece el error: Error: object 'gapminder' not found, asegurate de hacer los pasos indicados en el recuadro Paquetes para este capítulo arriba. 

gapminder
#> # A tibble: 1,704 × 6
#>   country     continent  year lifeExp      pop gdpPercap
#>   <fct>       <fct>     <int>   <dbl>    <int>     <dbl>
#> 1 Afghanistan Asia       1952    28.8  8425333      779.
#> 2 Afghanistan Asia       1957    30.3  9240934      821.
#> 3 Afghanistan Asia       1962    32.0 10267083      853.
#> 4 Afghanistan Asia       1967    34.0 11537966      836.
#> 5 Afghanistan Asia       1972    36.1 13079460      740.
#> 6 Afghanistan Asia       1977    38.4 14880372      786.
#> # ℹ 1,698 more rows
…
