R para preparación y visualización de datos - 4 Combinar datos
…
4.1 Bind rows or columns

El método más sencillo. Simplemente unimos las filas o columnas de los data-frames.

# Importar CSVs
DF1 = read_csv(here::here("data/files/02-CSVs/01.csv"))
DF2 = read_csv(here::here("data/files/02-CSVs/02.csv"))

# Bind DFs añadiendo las *filas* de DF2 a DF1
DF1 %>% 
   bind_rows(DF2)
#> # A tibble: 800 × 9
#>   Sex   Priming    trialN Block Adjective  Valence  Answer Arrow    rT
#>   <chr> <chr>       <dbl> <chr> <chr>      <chr>    <chr>  <chr> <dbl>
#> 1 male  Collective      1 we    ofensivo   negative yes    left    623
#> 2 male  Collective      2 we    resentido  negative no     right  1235
#> 3 male  Collective      3 we    ego�sta    negative yes    left    335
#> 4 male  Collective      4 we    indiscreto negative yes    left    355
#> 5 male  Collective      5 we    sumiso     negative yes    left    618
#> 6 male  Collective      6 we    agradable  positive yes    left    328
#> # ℹ 794 more rows

# Bind DFs añadiendo las *columnas* de DF2 a DF1
  ## bind_cols renombra automaticamente los nombres de las columnas para que no haya coincidencias
DF1 %>% 
  bind_cols(DF2) 
#> # A tibble: 400 × 18
#>   Sex...1 Priming...2 trialN...3 Block...4 Adjective...5 Valence...6
#>   <chr>   <chr>            <dbl> <chr>     <chr>         <chr>      
#> 1 male    Collective           1 we        ofensivo      negative   
#> 2 male    Collective           2 we        resentido     negative   
#> 3 male    Collective           3 we        ego�sta       negative   
#> 4 male    Collective           4 we        indiscreto    negative   
#> 5 male    Collective           5 we        sumiso        negative   
#> 6 male    Collective           6 we        agradable     positive   
#> # ℹ 394 more rows
#> # ℹ 12 more variables: Answer...7 <chr>, Arrow...8 <chr>, rT...9 <dbl>, …
…
