4 Preparación y transformación de datos – R para preparación y visualización de datos
…
# Usamos la función read_csv() para leer el archivo
DF_name = read_csv(name_of_file)

En este manual verás que usamos name_of_file =  here::here("mi/archivo.csv"). La función here::here nos ayuda a evitar problemas con la ruta a los archivos (nos devuelve la ruta absoluta). Esto suele ser importante cuando trabajamos con quarto or rmarkdown, pero normalmente lo podemos ignorar.

# En name_of_file almacenamos la ruta absoluta al archivo
name_of_file = here::here("data/files/02-read-csv.csv")

# Leemos el archivo que esta en name_of_file
DF_name = read_csv(name_of_file)

DF_name
#> # A tibble: 103 × 9
#>    ...1    ID Genero  Edad Educacion FollowUP condition condition2
#>   <dbl> <dbl>  <dbl> <dbl>     <dbl>    <dbl> <chr>     <chr>     
#> 1     4 41904      1    47         8       80 PPV_Cond1 90LInt    
#> 2     5 95041      2    21         6       90 PPV_Cond1 90RInt    
#> 3     6 74594      2    29         6       10 PPV_Cond1 100LInt   
#> 4    15 72903      2    27         7       75 PPV_Cond1 100RInt   
#> 5    16 21260      1    29         5       35 PPV_Cond1 90LInt    
#> 6    18 50315      2    28         6       14 PPV_Cond1 90RInt    
#> # ℹ 97 more rows
#> # ℹ 1 more variable: PPV_DECLARED <dbl>
…
Con col_types podemos especificar el tipo de datos que contiene cada columna (texto, números, factores…). Al ser explícitos con el tipo de datos evitamos sorpresas, y de paso reducimos el output de la Consola.

# En name_of_file almacenamos la ruta completa al archivo
name_of_file = here::here("data/files/02-read-csv.csv")

# Leemos el archivo que esta en name_of_file
read_csv(name_of_file, 
         skip = 0,
         col_types = cols(
           .default = col_double(),
           condition = col_character(),
           condition2 = col_character()
           )
         )
#> # A tibble: 103 × 9
#>    ...1    ID Genero  Edad Educacion FollowUP condition condition2
#>   <dbl> <dbl>  <dbl> <dbl>     <dbl>    <dbl> <chr>     <chr>     
#> 1     4 41904      1    47         8       80 PPV_Cond1 90LInt    
#> 2     5 95041      2    21         6       90 PPV_Cond1 90RInt    
#> 3     6 74594      2    29         6       10 PPV_Cond1 100LInt   
#> 4    15 72903      2    27         7       75 PPV_Cond1 100RInt   
#> 5    16 21260      1    29         5       35 PPV_Cond1 90LInt    
#> 6    18 50315      2    28         6       14 PPV_Cond1 90RInt    
#> # ℹ 97 more rows
#> # ℹ 1 more variable: PPV_DECLARED <dbl>
…
Por suerte, las funciones como read_csv() admiten un vector con varios archivos.

Para importar todos los archivos que están en la carpeta data/files/02-CSVs:

# Directorio donde se encuentran los archivos
name_of_folder = here::here("data/files/02-CSVs")

# Listamos los archivos a leer
files <- list.files(name_of_folder, full.names = TRUE)

# Leemos todos los archivos, combinándolos en un data frame
full <- read_csv(files)

full
#> # A tibble: 1,600 × 9
#>   Sex   Priming    trialN Block Adjective  Valence  Answer Arrow    rT
#>   <chr> <chr>       <dbl> <chr> <chr>      <chr>    <chr>  <chr> <dbl>
#> 1 male  Collective      1 we    ofensivo   negative yes    left    623
#> 2 male  Collective      2 we    resentido  negative no     right  1235
#> 3 male  Collective      3 we    ego�sta    negative yes    left    335
#> 4 male  Collective      4 we    indiscreto negative yes    left    355
#> 5 male  Collective      5 we    sumiso     negative yes    left    618
#> 6 male  Collective      6 we    agradable  positive yes    left    328
#> # ℹ 1,594 more rows
…
Usaremos map_df() del paquete purrr, que aplica la función que queramos a cada uno de los archivos que le indiquemos, uno a uno:

# Directorio donde se encuentran los archivos
name_of_folder = here::here("data/files/02-CSVs")

# Listamos los archivos a leer
files <- list.files(name_of_folder, full.names = TRUE)

# Leemos todos los archivos de uno en uno, combinándolos en un data frame
full <- purrr::map_df(files, read_csv)

# Mostramos lo que contiene full
full
#> # A tibble: 1,600 × 9
#>   Sex   Priming    trialN Block Adjective  Valence  Answer Arrow    rT
#>   <chr> <chr>       <dbl> <chr> <chr>      <chr>    <chr>  <chr> <dbl>
#> 1 male  Collective      1 we    ofensivo   negative yes    left    623
#> 2 male  Collective      2 we    resentido  negative no     right  1235
#> 3 male  Collective      3 we    ego�sta    negative yes    left    335
#> 4 male  Collective      4 we    indiscreto negative yes    left    355
#> 5 male  Collective      5 we    sumiso     negative yes    left    618
#> 6 male  Collective      6 we    agradable  positive yes    left    328
#> # ℹ 1,594 more rows
…
name_of_folder = here::here("data/files/02-CSVs")
files <- list.files(name_of_folder, full.names = TRUE)
full <- map_df(files, read_csv,
               # Ponemos los parámetros separados por comas, después de la función
               col_types = cols(
                 .default = col_character(), 
                 Sex = col_factor(),
                 trialN = col_integer(),
                 Valence = col_factor(),
                 rT = col_double()
                 )
               )

full
#> # A tibble: 1,600 × 9
#>   Sex   Priming    trialN Block Adjective  Valence  Answer Arrow    rT
#>   <fct> <chr>       <int> <chr> <chr>      <fct>    <chr>  <chr> <dbl>
#> 1 male  Collective      1 we    ofensivo   negative yes    left    623
#> 2 male  Collective      2 we    resentido  negative no     right  1235
#> 3 male  Collective      3 we    ego�sta    negative yes    left    335
#> 4 male  Collective      4 we    indiscreto negative yes    left    355
#> 5 male  Collective      5 we    sumiso     negative yes    left    618
#> 6 male  Collective      6 we    agradable  positive yes    left    328
#> # ℹ 1,594 more rows
…
Ejercicios - Importar múltiples archivos

Cuando más arriba importamos los archivos que están en la carpeta data/files/02-CSVs:

¿Qué archivos importamos exactamente?

¿Ves algún problema en lo que hicimos?

Revisa el número de filas y el contenido de la variable files.

El resultado final debería ser así:

#> # A tibble: 1,200 × 9
#>   Sex   Priming    trialN Block Adjective  Valence  Answer Arrow    rT
#>   <chr> <chr>       <dbl> <chr> <chr>      <chr>    <chr>  <chr> <dbl>
#> 1 male  Collective      1 we    ofensivo   negative yes    left    623
#> 2 male  Collective      2 we    resentido  negative no     right  1235
#> 3 male  Collective      3 we    ego�sta    negative yes    left    335
#> 4 male  Collective      4 we    indiscreto negative yes    left    355
#> 5 male  Collective      5 we    sumiso     negative yes    left    618
#> 6 male  Collective      6 we    agradable  positive yes    left    328
#> # ℹ 1,194 more rows

Leed los archivos .xlsx de la carpeta data/files/02-XLSs, combinándolos en un único DF. El resultado final debería ser como se ve a continuación:

Pista

Tendréis que usar list.files() usando el parámetro pattern

Te recomiendo abrir los archivos excel para ver su estructura, las pestañas que tienen… ahí te darás cuenta de que necesitas otros parámetros de read_xlsx() como sheet o skip

#> # A tibble: 1,200 × 9
#>   Sex   Priming    trialN Block Adjective  Valence  Answer Arrow    rT
#>   <chr> <chr>       <dbl> <chr> <chr>      <chr>    <chr>  <chr> <dbl>
#> 1 male  Collective      1 we    ofensivo   negative yes    left    623
#> 2 male  Collective      2 we    resentido  negative no     right  1235
#> 3 male  Collective      3 we    ego�sta    negative yes    left    335
#> 4 male  Collective      4 we    indiscreto negative yes    left    355
#> 5 male  Collective      5 we    sumiso     negative yes    left    618
#> 6 male  Collective      6 we    agradable  positive yes    left    328
#> # ℹ 1,194 more rows
…
rename(): renombrar columnas

mutate(): crear columnas, modificar columnas, etc.

Tabla resumen dplyr

4.2.3.1 Filtrar y ordenar filas

A partir de los siguientes datos:

name_of_file = here::here("data/files/02-read-csv.csv")
DF_name = read_csv(name_of_file)
DF_name
#> # A tibble: 103 × 9
#>    ...1    ID Genero  Edad Educacion FollowUP condition condition2
#>   <dbl> <dbl>  <dbl> <dbl>     <dbl>    <dbl> <chr>     <chr>     
#> 1     4 41904      1    47         8       80 PPV_Cond1 90LInt    
#> 2     5 95041      2    21         6       90 PPV_Cond1 90RInt    
#> 3     6 74594      2    29         6       10 PPV_Cond1 100LInt   
#> 4    15 72903      2    27         7       75 PPV_Cond1 100RInt   
#> 5    16 21260      1    29         5       35 PPV_Cond1 90LInt    
#> 6    18 50315      2    28         6       14 PPV_Cond1 90RInt    
#> # ℹ 97 more rows
#> # ℹ 1 more variable: PPV_DECLARED <dbl>
…
También podemos ordenar las filas usando arrange() solo o en combinación con desc().

Por ejemplo, ordenamos a partir de Educación, de menor a mayor:

DF_name |> 
  arrange(Educacion, desc(Genero))
#> # A tibble: 103 × 9
#>    ...1    ID Genero  Edad Educacion FollowUP condition condition2
#>   <dbl> <dbl>  <dbl> <dbl>     <dbl>    <dbl> <chr>     <chr>     
#> 1   350 20439      2    41         1       81 PPV_Cond4 90LAmp    
#> 2   399 81379      1    36         1       90 PPV_Cond4 90RAmp    
#> 3    42 20361      2    37         2       60 PPV_Cond1 100LInt   
#> 4   364 19201      2    21         2       67 PPV_Cond4 90LAmp    
#> 5   412 60292      1    28         2       90 PPV_Cond4 100LAmp   
#> 6    44 92735      2    30         3       95 PPV_Cond1 100RInt   
#> # ℹ 97 more rows
#> # ℹ 1 more variable: PPV_DECLARED <dbl>

Si queremos ordenar a partir de dos o más criterios, simplemente los separamos por coma. Además, si queremos que alguno de ellos sea de manera descendente (por defecto es ascendente), envolvemos el nombre de columna en desc().

Abajo, ordenamos educación de manera ascendente, y de Género descendente:

DF_name |> 
  arrange(Educacion, desc(Genero))
#> # A tibble: 103 × 9
#>    ...1    ID Genero  Edad Educacion FollowUP condition condition2
#>   <dbl> <dbl>  <dbl> <dbl>     <dbl>    <dbl> <chr>     <chr>     
#> 1   350 20439      2    41         1       81 PPV_Cond4 90LAmp    
#> 2   399 81379      1    36         1       90 PPV_Cond4 90RAmp    
#> 3    42 20361      2    37         2       60 PPV_Cond1 100LInt   
#> 4   364 19201      2    21         2       67 PPV_Cond4 90LAmp    
#> 5   412 60292      1    28         2       90 PPV_Cond4 100LAmp   
#> 6    44 92735      2    30         3       95 PPV_Cond1 100RInt   
#> # ℹ 97 more rows
#> # ℹ 1 more variable: PPV_DECLARED <dbl>

4.2.3.2 Seleccionar, ordenar y renombrar columnas

Seleccionamos las columnas que queremos listando las variables en el orden deseado dentro del verbo select():

DF_name |> 
  select(Genero, Edad)
#> # A tibble: 103 × 2
#>   Genero  Edad
#>    <dbl> <dbl>
#> 1      1    47
#> 2      2    21
#> 3      2    29
#> 4      2    27
#> 5      1    29
#> 6      2    28
#> # ℹ 97 more rows

Eliminamos columnas precediendo las variables a eliminar con - dentro de select():

DF_name |> 
  select(-...1)
#> # A tibble: 103 × 8
#>      ID Genero  Edad Educacion FollowUP condition condition2 PPV_DECLARED
#>   <dbl>  <dbl> <dbl>     <dbl>    <dbl> <chr>     <chr>             <dbl>
#> 1 41904      1    47         8       80 PPV_Cond1 90LInt               99
#> 2 95041      2    21         6       90 PPV_Cond1 90RInt               99
#> 3 74594      2    29         6       10 PPV_Cond1 100LInt              99
#> 4 72903      2    27         7       75 PPV_Cond1 100RInt               1
#> 5 21260      1    29         5       35 PPV_Cond1 90LInt               24
#> 6 50315      2    28         6       14 PPV_Cond1 90RInt               NA
#> # ℹ 97 more rows

Ordenamos y eliminamos columnas listando las variables en el orden deseado dentro del verbo select() y precediendo las variables a eliminar con -:

DF_name |> 
  select(ID, Edad, Genero, everything(), -...1) 
#> # A tibble: 103 × 8
#>      ID  Edad Genero Educacion FollowUP condition condition2 PPV_DECLARED
#>   <dbl> <dbl>  <dbl>     <dbl>    <dbl> <chr>     <chr>             <dbl>
#> 1 41904    47      1         8       80 PPV_Cond1 90LInt               99
#> 2 95041    21      2         6       90 PPV_Cond1 90RInt               99
#> 3 74594    29      2         6       10 PPV_Cond1 100LInt              99
#> 4 72903    27      2         7       75 PPV_Cond1 100RInt               1
#> 5 21260    29      1         5       35 PPV_Cond1 90LInt               24
#> 6 50315    28      2         6       14 PPV_Cond1 90RInt               NA
#> # ℹ 97 more rows

Para renombrar variables usamos el verbo rename(). Es importante recordar que en hay que indicar rename(NOMBRE_NUEVO = NOMBRE_ANTIGUO):

DF_name |> 
  rename(Identificador = ID,
         Sexo = Genero)
#> # A tibble: 103 × 9
#>    ...1 Identificador  Sexo  Edad Educacion FollowUP condition condition2
#>   <dbl>         <dbl> <dbl> <dbl>     <dbl>    <dbl> <chr>     <chr>     
#> 1     4         41904     1    47         8       80 PPV_Cond1 90LInt    
#> 2     5         95041     2    21         6       90 PPV_Cond1 90RInt    
#> 3     6         74594     2    29         6       10 PPV_Cond1 100LInt   
#> 4    15         72903     2    27         7       75 PPV_Cond1 100RInt   
#> 5    16         21260     1    29         5       35 PPV_Cond1 90LInt    
#> 6    18         50315     2    28         6       14 PPV_Cond1 90RInt    
#> # ℹ 97 more rows
#> # ℹ 1 more variable: PPV_DECLARED <dbl>
…
Con contains() seleccionamos variables que contienen la cadena de texto dem:

  df_wide |> 
    select(contains("dem"))
#> # A tibble: 232 × 3
#>   dem_genero dem_edad dem_nivedu
#>        <dbl>    <dbl>      <dbl>
#> 1          1       38          4
#> 2          0       67          2
#> 3          0       24          4
#> 4          0       30          4
#> 5          0       38          3
#> 6          0       45          4
#> # ℹ 226 more rows

Usando ends_with() seleccionamos variables que acaban con la cadena de texto cod:

  df_wide |> 
    select(ID, ends_with("cod"))
#> # A tibble: 232 × 79
#>      ID WVOC_01_cod WVOC_02_cod WVOC_03_cod WVOC_04_cod WVOC_05_cod
#>   <dbl>       <dbl>       <dbl>       <dbl>       <dbl>       <dbl>
#> 1     1           2           2           2           1           2
#> 2     2           2           2           2           1           0
#> 3     3           2           2           2           1           2
#> 4     4           2           1           1           1           2
#> 5     5           2           2           1           1           0
#> 6     6           1           1           2           1           2
#> # ℹ 226 more rows
#> # ℹ 73 more variables: WVOC_06_cod <dbl>, WVOC_07_cod <dbl>, …

Finalmente, matches() nos permite usar todo la potencia de las expresiones regulares. En este caso, también le pedimos variables que acaban con la cadena de texto cod:

  df_wide |> 
    select(ID, matches("cod$")) # $: fin de la cadena de texto
#> # A tibble: 232 × 79
#>      ID WVOC_01_cod WVOC_02_cod WVOC_03_cod WVOC_04_cod WVOC_05_cod
#>   <dbl>       <dbl>       <dbl>       <dbl>       <dbl>       <dbl>
#> 1     1           2           2           2           1           2
#> 2     2           2           2           2           1           0
#> 3     3           2           2           2           1           2
#> 4     4           2           1           1           1           2
#> 5     5           2           2           1           1           0
#> 6     6           1           1           2           1           2
#> # ℹ 226 more rows
#> # ℹ 73 more variables: WVOC_06_cod <dbl>, WVOC_07_cod <dbl>, …

4.2.3.4 Modificar y añadir variables

Seguimos usando verbos de {dplyr}. Para crear nuevas variables o modificarlas reemplazando los valores usaremos mutate(). Dentro de mutate podemos hacer cualquier operación con una o más variables.

Primero leemos nuestra base:

name_of_file = here::here("data/files/02-read-csv.csv")
DF_name = read_csv(name_of_file)
DF_name
#> # A tibble: 103 × 9
#>    ...1    ID Genero  Edad Educacion FollowUP condition condition2
#>   <dbl> <dbl>  <dbl> <dbl>     <dbl>    <dbl> <chr>     <chr>     
#> 1     4 41904      1    47         8       80 PPV_Cond1 90LInt    
#> 2     5 95041      2    21         6       90 PPV_Cond1 90RInt    
#> 3     6 74594      2    29         6       10 PPV_Cond1 100LInt   
#> 4    15 72903      2    27         7       75 PPV_Cond1 100RInt   
#> 5    16 21260      1    29         5       35 PPV_Cond1 90LInt    
#> 6    18 50315      2    28         6       14 PPV_Cond1 90RInt    
#> # ℹ 97 more rows
#> # ℹ 1 more variable: PPV_DECLARED <dbl>

Si usamos una variable ya existente, en este caso PPV_DECLARED, sus valores se sobrescriben:

DF_name |> 
  mutate(PPV_DECLARED = PPV_DECLARED/100)
#> # A tibble: 103 × 9
#>    ...1    ID Genero  Edad Educacion FollowUP condition condition2
#>   <dbl> <dbl>  <dbl> <dbl>     <dbl>    <dbl> <chr>     <chr>     
#> 1     4 41904      1    47         8       80 PPV_Cond1 90LInt    
#> 2     5 95041      2    21         6       90 PPV_Cond1 90RInt    
#> 3     6 74594      2    29         6       10 PPV_Cond1 100LInt   
#> 4    15 72903      2    27         7       75 PPV_Cond1 100RInt   
#> 5    16 21260      1    29         5       35 PPV_Cond1 90LInt    
#> 6    18 50315      2    28         6       14 PPV_Cond1 90RInt    
#> # ℹ 97 more rows
#> # ℹ 1 more variable: PPV_DECLARED <dbl>

Si usamos una variable no existente (PPV_DECLARED_PCT), la creamos:

DF_name |> 
  mutate(PPV_DECLARED_PCT = PPV_DECLARED/100)
#> # A tibble: 103 × 10
#>    ...1    ID Genero  Edad Educacion FollowUP condition condition2
#>   <dbl> <dbl>  <dbl> <dbl>     <dbl>    <dbl> <chr>     <chr>     
#> 1     4 41904      1    47         8       80 PPV_Cond1 90LInt    
#> 2     5 95041      2    21         6       90 PPV_Cond1 90RInt    
#> 3     6 74594      2    29         6       10 PPV_Cond1 100LInt   
#> 4    15 72903      2    27         7       75 PPV_Cond1 100RInt   
#> 5    16 21260      1    29         5       35 PPV_Cond1 90LInt    
#> 6    18 50315      2    28         6       14 PPV_Cond1 90RInt    
#> # ℹ 97 more rows
#> # ℹ 2 more variables: PPV_DECLARED <dbl>, PPV_DECLARED_PCT <dbl>
…
Podemos agrupar por múltiples variables, y calcular tantas cosas como queramos. En ese caso la media, mediana, desviación estándar y el numero de observaciones:

DF_name |> 
  group_by(Genero, condition) |> 
  summarise(promedio_PPV = mean(PPV_DECLARED, na.rm = TRUE),
            mediana_PPV = median(PPV_DECLARED, na.rm = TRUE),
            SD = sd(PPV_DECLARED, na.rm = TRUE),
            N = n())
#> # A tibble: 8 × 6
#> # Groups:   Genero [2]
#>   Genero condition promedio_PPV mediana_PPV    SD     N
#>    <dbl> <chr>            <dbl>       <dbl> <dbl> <int>
#> 1      1 PPV_Cond1         63.8          88  43.1     9
#> 2      1 PPV_Cond2         50.2          46  10.3    13
#> 3      1 PPV_Cond3         75.6          80  32.5     5
#> 4      1 PPV_Cond4         79.1          91  20.0    13
#> 5      2 PPV_Cond1         72.6          99  43.8    19
#> 6      2 PPV_Cond2         49.4          46  16.3     8
#> # ℹ 2 more rows
…
