R para preparación y visualización de datos - 5 Análisis de datos exploratorio
…
¿Qué estamos viendo exáctamente arriba? Hay un punto por cada pais, y por cada año, lo que da lugar aalgo bien dificil de interpretar. Podemos ver los datos únicamente del último año:

gapminder |> group_by(year) |> summarise(n())
#> # A tibble: 12 × 2
#>    year `n()`
#>   <int> <int>
#> 1  1952   142
#> 2  1957   142
#> 3  1962   142
#> 4  1967   142
#> 5  1972   142
#> 6  1977   142
#> # ℹ 6 more rows
…
5.2.4 Dos variables categóricas

Podemos contar el número de valores para los niveles de dos variables categóricas con count():

diamonds |>
  count(color, cut)
#> # A tibble: 35 × 3
#>   color cut           n
#>   <ord> <ord>     <int>
#> 1 D     Fair        163
#> 2 D     Good        662
#> 3 D     Very Good  1513
#> 4 D     Premium    1603
#> 5 D     Ideal      2834
#> 6 E     Fair        224
#> # ℹ 29 more rows
…
