Capítulo 4 Combinar datos | R para preparación y visualización de datos
…
4.1 Bind rows or columns

El método más sencillo. Simplemente unimos las filas o columnas de los data-frames.

# Importar CSVs
DF1 = read_csv(here::here("data/files/02-CSVs/01.csv"))
DF2 = read_csv(here::here("data/files/02-CSVs/02.csv"))

# Bind DFs añadiendo las *filas* de DF2 a DF1
DF1 %>% 
   bind_rows(DF2)

## # A tibble: 800 × 9
##    Sex   Priming    trialN Block Adjective  Valence  Answer Arrow    rT
##    <chr> <chr>       <dbl> <chr> <chr>      <chr>    <chr>  <chr> <dbl>
##  1 male  Collective      1 we    ofensivo   negative yes    left    623
##  2 male  Collective      2 we    resentido  negative no     right  1235
##  3 male  Collective      3 we    ego�sta    negative yes    left    335
##  4 male  Collective      4 we    indiscreto negative yes    left    355
##  5 male  Collective      5 we    sumiso     negative yes    left    618
##  6 male  Collective      6 we    agradable  positive yes    left    328
##  7 male  Collective      7 we    clasista   negative yes    left    348
##  8 male  Collective      8 we    altruista  positive yes    left   1620
##  9 male  Collective      9 we    ansioso    negative yes    left    346
## 10 male  Collective     10 we    presumido  negative yes    left    778
## # … with 790 more rows
## # ℹ Use `print(n = ...)` to see more rows

# Bind DFs añadiendo las *columnas* de DF2 a DF1
  ## bind_cols renombra automaticamente los nombres de las columnas para que no haya coincidencias
DF1 %>% 
  bind_cols(DF2) 

## # A tibble: 400 × 18
##    Sex...1 Priming...2 trialN...3 Block…¹ Adjec…² Valen…³ Answe…⁴ Arrow…⁵ rT...9
##    <chr>   <chr>            <dbl> <chr>   <chr>   <chr>   <chr>   <chr>    <dbl>
##  1 male    Collective           1 we      ofensi… negati… yes     left       623
##  2 male    Collective           2 we      resent… negati… no      right     1235
##  3 male    Collective           3 we      ego�sta negati… yes     left       335
##  4 male    Collective           4 we      indisc… negati… yes     left       355
##  5 male    Collective           5 we      sumiso  negati… yes     left       618
##  6 male    Collective           6 we      agrada… positi… yes     left       328
##  7 male    Collective           7 we      clasis… negati… yes     left       348
##  8 male    Collective           8 we      altrui… positi… yes     left      1620
##  9 male    Collective           9 we      ansioso negati… yes     left       346
## 10 male    Collective          10 we      presum… negati… yes     left       778
## # … with 390 more rows, 9 more variables: Sex...10 <chr>, Priming...11 <chr>,
## #   trialN...12 <dbl>, Block...13 <chr>, Adjective...14 <chr>,
## #   Valence...15 <chr>, Answer...16 <chr>, Arrow...17 <chr>, rT...18 <dbl>, and
## #   abbreviated variable names ¹​Block...4, ²​Adjective...5, ³​Valence...6,
## #   ⁴​Answer...7, ⁵​Arrow...8
## # ℹ Use `print(n = ...)` to see more rows, and `colnames()` to see all variable names
…
